…
En el resultado se aprecia la modificación de los diferentes factores.

### Reuniendo los datos

Un problema bastante común que parece en la recogida de datos experimentales es que los nombres de las columnas de la base de datos no es una variable en si, sino los valores de una variable. Si tomamos como ejemplo el banco de datos `PCKDATA`.


```r
PCKDATA = readr::read_csv("https://goo.gl/W8Bfgv", col_types = "idd")
PCKDATA
```

```
## # A tibble: 1,005 × 3
##     SUBJ     A     B
##    <int> <dbl> <dbl>
##  1     1   193   250
##  2     2    90   173
##  3     3   120   135
##  4     4   154    49
##  5     5   149    83
##  6     6   146   123
##  7     7   180   126
##  8     8   128   177
##  9     9   180   164
## 10    10    66   121
## # … with 995 more rows
```
…
```r
gather(data_set,var, key = "key", value = "value", ...)
```

donde `data_set` es el banco de datos, var es el conjunto de variables que reorganizamos, `key` es el nombre de la variable donde reorganizamos las variables anteriores, y `value` es el nombre de la variable donde almacenamos los valores de respuesta. Para el conjunto de datos anterior tenemos:


```r
gather(PCKDATA,`A`,`B`, key = "Grupo", value = creatine)
```

```
## # A tibble: 2,010 × 3
##     SUBJ Grupo creatine
##    <int> <chr>    <dbl>
##  1     1 A          193
##  2     2 A           90
##  3     3 A          120
##  4     4 A          154
##  5     5 A          149
##  6     6 A          146
##  7     7 A          180
##  8     8 A          128
##  9     9 A          180
## 10    10 A           66
## # … with 2,000 more rows
```
…
Es una generalización directa de los dos casos anteriores. Se presenta únicamente el código para obtener los resultados. Añadimos la variable `month_f` a las del caso anterior.


```r
tabla_cor <- storm %>% 
  group_by(year_f,month_f,type) %>% 
  summarise(cor = cor(wind,pressure))
# Visulaizamos la tabla de resultados de forma óptima
tabla_resumen <- dplyr::select(tabla_cor,year_f,month_f,type,cor)
spread(tabla_resumen, key = type, value = cor)
```

```
## # A tibble: 30 × 6
## # Groups:   year_f, month_f [30]
##    year_f month_f   Extratropical Hurricane `Tropical Depression` `Tropical Storm`
##    <fct>  <fct>             <dbl>     <dbl>                 <dbl>            <dbl>
##  1 1995   June             -0.688    NA                   NA                -0.849
##  2 1995   July             -0.816    NA                    0.121            -0.701
##  3 1995   August           -0.926    -0.750                0.294            -0.805
##  4 1995   September        -0.881    -0.931               -0.203            -0.937
##  5 1995   October          -0.954    -0.918               -0.0585           -0.727
##  6 1995   November         -0.968    NA                   NA                 1    
##  7 1996   June             -0.591    NA                   -0.828             0    
##  8 1996   July             -0.165    -0.779               -0.612            -0.955
##  9 1996   August           NA        -0.976               -0.0301           -0.830
## 10 1996   September        -0.887    -0.852                0.0622           -0.927
## # … with 20 more rows
```
…
