Unidad 2 Análisis exploratorio de datos | Modelos Estadísticos
…
En este caso el comportamiento de los meses no es tan parecido. Si bien es cierto que en todas las combinaciones se aprecia una tendencia negativa (sube viento - baja presión), también se puede ver que los huracanes aparecen mayoritariamente en los meses de agosto a octubre. ¿Qué otra información podemos extraer de este gráfico?

2.5.5 Tres factores, Dos numéricas

Es una generalización directa de los dos casos anteriores. Se presenta únicamente el código para obtener los resultados. Añadimos la variable month_f a las del caso anterior.

tabla_cor <- storm %>% 
  group_by(year_f,month_f,type) %>% 
  summarise(cor = cor(wind,pressure))
# Visulaizamos la tabla de resultados de forma óptima
tabla_resumen <- dplyr::select(tabla_cor,year_f,month_f,type,cor)
spread(tabla_resumen, key = type, value = cor)

## # A tibble: 30 × 6
## # Groups:   year_f, month_f [30]
##    year_f month_f   Extratropical Hurricane `Tropical Depress…` `Tropical Storm`
##    <fct>  <fct>             <dbl>     <dbl>               <dbl>            <dbl>
##  1 1995   June             -0.688    NA                 NA                -0.849
##  2 1995   July             -0.816    NA                  0.121            -0.701
##  3 1995   August           -0.926    -0.750              0.294            -0.805
##  4 1995   September        -0.881    -0.931             -0.203            -0.937
##  5 1995   October          -0.954    -0.918             -0.0585           -0.727
##  6 1995   November         -0.968    NA                 NA                 1    
##  7 1996   June             -0.591    NA                 -0.828             0    
##  8 1996   July             -0.165    -0.779             -0.612            -0.955
##  9 1996   August           NA        -0.976             -0.0301           -0.830
## 10 1996   September        -0.887    -0.852              0.0622           -0.927
## # … with 20 more rows
…
