Unidad 5 Procesado inicial | Modelos Estadísticos
…
En el resultado se aprecia la modificación de los diferentes factores.

5.3 Reuniendo los datos

Un problema bastante común que parece en la recogida de datos experimentales es que los nombres de las columnas de la base de datos no es una variable en si, sino los valores de una variable. Si tomamos como ejemplo el banco de datos PCKDATA.

PCKDATA = read_csv("https://goo.gl/W8Bfgv", col_types = "idd")
PCKDATA

## # A tibble: 1,005 × 3
##     SUBJ     A     B
##    <int> <dbl> <dbl>
##  1     1   193   250
##  2     2    90   173
##  3     3   120   135
##  4     4   154    49
##  5     5   149    83
##  6     6   146   123
##  7     7   180   126
##  8     8   128   177
##  9     9   180   164
## 10    10    66   121
## # … with 995 more rows

Como se puede ver aparecen dos columnas indicando el tratamiento del sujeto, es decir, cada fila no identifica a un único sujeto. Por ese motivo en cada una de ellas aparece el valor del nivel de creatinina. Para poder trabajar de forma óptima cada fila debe contener la información única de cada sujeto. En este caso cada fila contiene la información de dos sujetos: el identificado como 1 en el tratamiento A y el identificado como 1 en el tratamiento B.

La función gather()nos permite reorganizar los datos de un banco de datos de forma muy sencilla. La estructura básica de la función es:

gather(data_set,var, key = "key", value = "value", ...)

donde data_set es el banco de datos, var es el conjunto de variables que reorganizamos, key es el nombre de la variable donde reorganizamos las variables anteriores, y value es el nombre de la variable donde almacenamos los valores de respuesta. Para el conjunto de datos anterior tenemos:

gather(PCKDATA,`A`,`B`, key = "Grupo", value = creatine)

## # A tibble: 2,010 × 3
##     SUBJ Grupo creatine
##    <int> <chr>    <dbl>
##  1     1 A          193
##  2     2 A           90
##  3     3 A          120
##  4     4 A          154
##  5     5 A          149
##  6     6 A          146
##  7     7 A          180
##  8     8 A          128
##  9     9 A          180
## 10    10 A           66
## # … with 2,000 more rows
…
